date, usage_ssd_percent, usage_ssd_used, usage_ceph_percent, usage_ceph_used
2022-09-07,  71%,  536G,   6%,  376G
2022-09-08,  72%,  537G,   6%,  377G
2022-09-09,  72%,  538G,   6%,  374G
2022-09-10,  71%,  533G,   6%,  375G
2022-09-11,  71%,  533G,   6%,  374G
2022-09-12,  71%,  534G,   6%,  379G
2022-09-13,  71%,  536G,   6%,  378G
2022-09-14,  72%,  540G,   6%,  377G
2022-09-15,  72%,  539G,   6%,  379G
2022-09-16,  72%,  540G,   6%,  380G
2022-09-17,  72%,  542G,   6%,  379G
2022-09-18,  72%,  542G,   6%,  378G
2022-09-19,  73%,  545G,   6%,  377G
2022-09-20,  73%,  545G,   6%,  382G
2022-09-21,  73%,  546G,   6%,  392G
2022-09-22,  73%,  547G,   6%,  391G
2022-09-23,  73%,  549G,   6%,  393G
2022-09-24,  73%,  550G,   6%,  394G
2022-09-25,  74%,  552G,   6%,  400G
2022-09-26,  75%,  560G,   7%,  409G
2022-09-27,  76%,  569G,   7%,  410G
2022-09-28,  76%,  570G,   7%,  410G
2022-09-29,  77%,  574G,   7%,  405G
2022-09-30,  78%,  582G,   6%,  402G
2022-10-01,  78%,  587G,   6%,  395G
2022-10-02,  78%,  589G,   6%,  372G
2022-10-03,  79%,  594G,   6%,  372G
2022-10-04,  80%,  597G,   6%,  366G
2022-10-05,  79%,  591G,   6%,  374G
2022-10-06,  80%,  601G,   6%,  349G
2022-10-07,  81%,  608G,   6%,  342G
2022-10-08,  83%,  624G,   6%,  346G
2022-10-09,  83%,  625G,   6%,  344G
2022-10-10,  85%,  639G,   6%,  340G
2022-10-11,  86%,  649G,   5%,  335G
2022-10-12,  87%,  656G,   5%,  333G
2022-10-13,  89%,  668G,   5%,  308G
2022-10-14,  89%,  670G,   5%,  314G
2022-10-15,  89%,  668G,   5%,  313G
2022-10-16,  89%,  670G,   5%,  315G
2022-10-17,  90%,  673G,   5%,  316G
2022-10-18,  91%,  681G,   5%,  316G
2022-10-19,  91%,  685G,   5%,  330G
2022-10-20,  92%,  688G,   5%,  326G
2022-10-21,  92%,  691G,   5%,  326G
2022-10-22,  85%,  641G,   7%,  408G
2022-10-23,  78%,  583G,   8%,  507G
2022-10-24,  79%,  596G,   8%,  517G
2022-10-25,  79%,  596G,   8%,  517G
2022-10-26,  81%,  604G,   8%,  519G
2022-10-27,  81%,  606G,   8%,  532G
2022-10-28,  81%,  607G,   8%,  534G
2022-10-29,  75%,  563G,   9%,  539G
2022-10-30,  79%,  593G,   9%,  539G
2022-10-31,  80%,  599G,   9%,  539G
2022-11-01,  80%,  602G,   9%,  540G
2022-11-02,  80%,  604G,   9%,  547G
2022-11-03,  81%,  611G,   9%,  552G
2022-11-04,  82%,  616G,   9%,  547G
2022-11-05,  83%,  626G,   9%,  552G
2022-11-06,  84%,  629G,   9%,  553G
2022-11-07,  85%,  635G,   9%,  562G
2022-11-08,  85%,  638G,   9%,  578G
2022-11-09,  84%,  630G,   9%,  584G
2022-11-10,  85%,  638G,   9%,  591G
2022-11-11,  87%,  650G,   9%,  586G
2022-11-12,  88%,  658G,  10%,  658G
2022-11-13,  90%,  675G,  10%,  660G
2022-11-14,  90%,  679G,  10%,  661G
2022-11-15,  73%,  544G,  12%,  783G
2022-11-16,  17%,  127G,  18%,  1.2T
2022-11-17,   5%,   36G,  20%,  1.3T
